1B5E8740334EC619EF59B0612EFD10EF.cache.js
user.agent safari

7305C98A51DB4E285AEAB258BB4D0CC4.cache.js
user.agent gecko1_8

96C39D99EB64986F2529EE6E26332B36.cache.js
user.agent ie10

Devmode:devmode.js